<svg xmlns="http://www.w3.org/2000/svg" width="195" height="225" viewBox="0 0 195 225">
    <g fill="none" fill-rule="evenodd">
        <path fill="#00C48C" d="M183.944 177.285c6.08-3.628 11.056-12.536 11.056-19.793V67.508c0-7.257-4.976-16.165-11.056-19.793L108.554 2.72c-6.079-3.628-16.029-3.628-22.108 0l-75.39 44.994C4.976 51.343 0 60.25 0 67.508v89.984c0 7.257 4.976 16.165 11.056 19.793l75.39 44.994c6.079 3.628 16.029 3.628 22.108 0l75.39-44.994z"/>
        <path fill="#FFF" d="M98.289 76.357c20.396 0 36.93 16.535 36.93 36.932 0 20.396-16.534 36.93-36.93 36.93-20.397 0-36.932-16.534-36.932-36.93 0-20.397 16.535-36.932 36.932-36.932zm0 6.715c-16.689 0-30.217 13.528-30.217 30.217 0 16.688 13.528 30.216 30.217 30.216 16.688 0 30.216-13.528 30.216-30.216 0-16.689-13.528-30.217-30.216-30.217zm3.357 16.787l-.001 10.072h10.073v6.715l-10.073-.001v10.073h-6.714v-10.073H84.859v-6.714h10.072V99.859h6.715z"/>
    </g>
</svg>
