<svg xmlns="http://www.w3.org/2000/svg" xmlns:xlink="http://www.w3.org/1999/xlink" width="23.844" height="23.659" viewBox="0 0 23.844 23.659">
  <defs>
    <clipPath id="clip-path">
      <path id="Clip_2" data-name="Clip 2" d="M0,0H23.844V23.659H0Z" transform="translate(0 0.166)" fill="none"/>
    </clipPath>
  </defs>
  <g id="insta-icon" transform="translate(0 -0.175)">
    <g id="Group_3" data-name="Group 3" transform="translate(0 0.009)">
      <path id="Clip_2-2" data-name="Clip 2" d="M0,0H23.844V23.659H0Z" transform="translate(0 0.166)" fill="none"/>
      <g id="Group_3-2" data-name="Group 3" clip-path="url(#clip-path)">
        <path id="Fill_1" data-name="Fill 1" d="M12.678,23.658c-1.886,0-3.841,0-5.977-.008a6.228,6.228,0,0,1-1.341-.12A6.463,6.463,0,0,1,.2,18.666a6.009,6.009,0,0,1-.14-.72C.038,17.833.02,17.716,0,17.6V6.053c.012-.076.023-.152.034-.228.023-.165.047-.333.084-.5A6.49,6.49,0,0,1,5.027.194,6.354,6.354,0,0,1,5.756.054C5.868.037,5.983.02,6.1,0H17.733L17.8.014c.051.01.1.021.154.026a5.848,5.848,0,0,1,1.879.492,6.364,6.364,0,0,1,3.98,6.026c.036,2.578.027,5.2.018,7.736q-.005,1.4-.008,2.8a6.266,6.266,0,0,1-1.166,3.731,6.5,6.5,0,0,1-5.536,2.83C15.7,23.657,14.206,23.658,12.678,23.658ZM12.213,2.094c-2.142,0-3.89,0-5.5.014a5.069,5.069,0,0,0-1.551.237A4.356,4.356,0,0,0,2.114,6.662c0,3.1,0,6.244,0,9.288v1.036a4.532,4.532,0,0,0,.243,1.566,4.437,4.437,0,0,0,4.326,3c1.534,0,3.141.006,4.913.006,1.624,0,3.338,0,5.555,0A4.428,4.428,0,0,0,20.9,19.672a4.376,4.376,0,0,0,.821-2.69q0-1.717,0-3.434,0-.858,0-1.716V10.55q0-1.923,0-3.845a4.637,4.637,0,0,0-.239-1.589A4.455,4.455,0,0,0,17.113,2.1H15.924Z" transform="translate(0 0.166)" fill="#fff"/>
      </g>
    </g>
    <path id="Fill_4" data-name="Fill 4" d="M6.154,12.192H6.132a6.139,6.139,0,0,1-4.367-1.833A6,6,0,0,1,0,6.082,6.145,6.145,0,0,1,6.138,0h.007a6.112,6.112,0,0,1,4.35,1.812,6.028,6.028,0,0,1-.019,8.588A6.1,6.1,0,0,1,6.154,12.192ZM6.134,2.1A4.015,4.015,0,0,0,2.119,6.092a3.937,3.937,0,0,0,1.173,2.82,4.024,4.024,0,0,0,2.844,1.177h.012A4.013,4.013,0,0,0,10.163,6.1,3.934,3.934,0,0,0,8.99,3.28,4.025,4.025,0,0,0,6.145,2.1Z" transform="translate(5.774 5.907)" fill="#fff"/>
    <path id="Fill_6" data-name="Fill 6" d="M1.586,0A1.548,1.548,0,0,0,0,1.509a1.551,1.551,0,0,0,3.1.045A1.546,1.546,0,0,0,1.586,0" transform="translate(16.762 4.136)" fill="#fff"/>
  </g>
</svg>
