<svg xmlns="http://www.w3.org/2000/svg" width="195" height="195" viewBox="0 0 195 195">
    <g fill="none" fill-rule="evenodd">
        <path fill="#00C48C" d="M30.4 0H195v164.6c0 16.79-13.61 30.4-30.4 30.4H0V30.4C0 13.61 13.61 0 30.4 0z"/>
        <path fill="#FFF" d="M138 108v13.333c0 5.523-4.477 10-10 10h-13.333v-6.666H128a3.333 3.333 0 0 0 3.333-3.334V108H138zm-73.333 0v16.667h16.666v6.666H58V108h6.667zm16.666-26.667V118h-6.666V81.333h6.666zm43.334 0V118H118V81.333h6.667zm-30 0V108H88V81.333h6.667zm16.666 0v23.334h-6.666V81.333h6.666zm-30-16.666v6.666H68a3.333 3.333 0 0 0-3.333 3.334V88H58V74.667c0-5.523 4.477-10 10-10h13.333zm46.667 0c5.523 0 10 4.477 10 10V88h-6.667V74.667A3.333 3.333 0 0 0 128 71.333h-13.333v-6.666z"/>
    </g>
</svg>
