<svg xmlns="http://www.w3.org/2000/svg" width="195" height="195" viewBox="0 0 195 195">
    <g fill="none" fill-rule="evenodd">
        <path fill="#00C48C" d="M30.4 0H195v164.6c0 16.79-13.61 30.4-30.4 30.4H0V30.4C0 13.61 13.61 0 30.4 0z"/>
        <path fill="#FFF" d="M98.289 61.357c20.396 0 36.93 16.535 36.93 36.932 0 20.396-16.534 36.93-36.93 36.93-20.397 0-36.932-16.534-36.932-36.93 0-20.397 16.535-36.932 36.932-36.932zm0 6.715C81.6 68.072 68.072 81.6 68.072 98.29c0 16.688 13.528 30.216 30.217 30.216 16.688 0 30.216-13.528 30.216-30.216 0-16.689-13.528-30.217-30.216-30.217zm3.357 16.787l-.001 10.072h10.073v6.715l-10.073-.001v10.073h-6.714v-10.073H84.859v-6.714h10.072V84.859h6.715z"/>
    </g>
</svg>
