<svg xmlns="http://www.w3.org/2000/svg" width="22.797" height="22.859" viewBox="0 0 22.797 22.859">
  <g id="messenger-icon" transform="translate(-0.603 -0.6)">
    <path id="Fill_1" data-name="Fill 1" d="M3.037,22.859v0l-.1-6.7C-.235,12.869-.9,8.555,1.252,5.171A11.086,11.086,0,0,1,7.961.444,13.438,13.438,0,0,1,11.383,0a13.2,13.2,0,0,1,5.286,1.1,10.179,10.179,0,0,1,5.6,5.662,8.239,8.239,0,0,1-.782,7.347,11.8,11.8,0,0,1-10.108,5.17,13.628,13.628,0,0,1-1.751-.113l-6.595,3.69ZM9.075,9.3,4.2,14.31a9.933,9.933,0,0,0,.748.825l.312.331.054,3.788,3.858-2.122.427.059a10.548,10.548,0,0,0,1.765.149,9.448,9.448,0,0,0,8.006-4.085,6.564,6.564,0,0,0,.662-5.845,7.341,7.341,0,0,0-1.544-2.487l-3.977,8.042Zm2.266-7.311A9.418,9.418,0,0,0,3.314,6.059a6.965,6.965,0,0,0,.831,8.189L8.486,6.376l5.342,3.613L18.4,4.832a8.9,8.9,0,0,0-2.809-1.949,10.513,10.513,0,0,0-4.237-.895Z" transform="translate(0.6 0.6)" fill="#fff"/>
  </g>
</svg>
