<svg xmlns="http://www.w3.org/2000/svg" xmlns:xlink="http://www.w3.org/1999/xlink" width="23.978" height="22.974" viewBox="0 0 23.978 22.974">
  <defs>
    <clipPath id="clip-path">
      <path id="Clip_2" data-name="Clip 2" d="M0,0H23.978V22.974H0Z" transform="translate(0 0.026)" fill="none"/>
    </clipPath>
  </defs>
  <g id="snap-icon" transform="translate(0 -0.026)">
    <g id="Group_3" data-name="Group 3">
      <path id="Clip_2-2" data-name="Clip 2" d="M0,0H23.978V22.974H0Z" transform="translate(0 0.026)" fill="none"/>
      <g id="Group_3-2" data-name="Group 3" clip-path="url(#clip-path)">
        <path id="Fill_1" data-name="Fill 1" d="M18.5,7.288h.056c0-.323-.008-.646,0-.969A5.737,5.737,0,0,0,17.54,2.708a6.519,6.519,0,0,0-5.979-2.7,6.279,6.279,0,0,0-6.174,6.9c.062.686.077,1.378.091,2.068.013.6-.05.663-.64.579-.409-.058-.809-.186-1.214-.276a1.134,1.134,0,0,0-1.187.6c-.146.343-.023.652.485.949a10.165,10.165,0,0,0,1.4.654c1,.4,1.211.87.779,1.869-.046.107-.1.213-.152.316a7.108,7.108,0,0,1-4.339,3.7.984.984,0,0,0-.59.539c-.106.335.192.564.484.678a14.4,14.4,0,0,0,1.543.533c1.278.338,1.079.022,1.394,1.4a.48.48,0,0,0,.652.427c.478-.093.962-.161,1.445-.216A4.388,4.388,0,0,1,8.72,21.828a5.451,5.451,0,0,0,4.086,1.1,4.523,4.523,0,0,0,2.3-1,5.512,5.512,0,0,1,4.236-1.151c1.036.122,1.045.073,1.393-.946a.8.8,0,0,1,.641-.617,16.031,16.031,0,0,0,1.859-.516c.365-.122.774-.3.74-.793s-.468-.533-.82-.648c-.014,0-.028-.006-.042-.011a6.991,6.991,0,0,1-4.338-4.285.84.84,0,0,1,.382-1.169c.289-.184.624-.289.928-.45a8.529,8.529,0,0,0,1.264-.726.621.621,0,0,0-.012-1.048A1.2,1.2,0,0,0,20.1,9.3a8.717,8.717,0,0,1-1.17.261c-.288.045-.445-.088-.433-.428.021-.616.006-1.233.006-1.849" transform="translate(0 0.026)"/>
      </g>
    </g>
    <g id="Group_6" data-name="Group 6">
      <path id="Clip_5-2" data-name="Clip 5" d="M0,0H23.978V22.974H0Z" transform="translate(0 0.026)" fill="none"/>
      <g id="Group_6-2" data-name="Group 6" clip-path="url(#clip-path)">
        <path id="Fill_4" data-name="Fill 4" d="M18.5,7.288c0,.617.015,1.234-.006,1.849-.011.339.146.472.433.428A8.717,8.717,0,0,0,20.1,9.3a1.2,1.2,0,0,1,1.241.263.621.621,0,0,1,.012,1.048,8.529,8.529,0,0,1-1.264.726c-.3.161-.64.266-.928.45a.84.84,0,0,0-.382,1.169,6.991,6.991,0,0,0,4.338,4.285c.014,0,.028.007.042.011.352.115.787.17.82.648s-.374.671-.74.793a16.031,16.031,0,0,1-1.859.516.8.8,0,0,0-.641.617c-.348,1.019-.357,1.068-1.393.946a5.512,5.512,0,0,0-4.236,1.151,4.523,4.523,0,0,1-2.3,1,5.451,5.451,0,0,1-4.086-1.1,4.388,4.388,0,0,0-3.179-1.109c-.484.056-.967.124-1.445.216a.48.48,0,0,1-.652-.427c-.316-1.374-.116-1.058-1.394-1.4a14.4,14.4,0,0,1-1.543-.533c-.293-.114-.591-.343-.484-.678a.984.984,0,0,1,.59-.539,7.108,7.108,0,0,0,4.339-3.7c.055-.1.106-.209.152-.316.433-1,.225-1.473-.779-1.869a10.165,10.165,0,0,1-1.4-.654c-.508-.3-.631-.606-.485-.949a1.134,1.134,0,0,1,1.187-.6c.405.09.8.218,1.214.276.59.084.652.021.64-.579-.014-.69-.029-1.381-.091-2.068a6.279,6.279,0,0,1,6.174-6.9,6.519,6.519,0,0,1,5.979,2.7,5.737,5.737,0,0,1,1.019,3.611c-.009.323,0,.646,0,.969H18.5" transform="translate(0 0.026)" fill="#fff"/>
      </g>
    </g>
  </g>
</svg>
