<svg xmlns="http://www.w3.org/2000/svg" width="22.8" height="19.543" viewBox="0 0 22.8 19.543">
  <g id="twiter-icon" transform="translate(-0.6 -0.4)">
    <path id="ic_Twitter_white" data-name="ic Twitter / white" d="M20.114,3.09A4.9,4.9,0,0,0,22.17.361a9.071,9.071,0,0,1-2.971,1.2A4.554,4.554,0,0,0,15.785,0a4.81,4.81,0,0,0-4.676,4.933,5.161,5.161,0,0,0,.119,1.124A13.064,13.064,0,0,1,1.587.9,5.129,5.129,0,0,0,.954,3.383,5.012,5.012,0,0,0,3.035,7.491a4.51,4.51,0,0,1-2.12-.617v.061a4.874,4.874,0,0,0,3.754,4.837,4.354,4.354,0,0,1-1.234.174,4.4,4.4,0,0,1-.879-.088,4.718,4.718,0,0,0,4.369,3.426,9.081,9.081,0,0,1-5.809,2.112A8.834,8.834,0,0,1,0,17.327a12.754,12.754,0,0,0,7.17,2.216c8.605,0,13.308-7.517,13.308-14.037,0-.215,0-.428-.012-.638A9.778,9.778,0,0,0,22.8,2.313,8.965,8.965,0,0,1,20.114,3.09Z" transform="translate(0.6 0.4)" fill="#fff"/>
  </g>
</svg>
